<?xml version="1.0" encoding="UTF-8"?>
<CustomTab xmlns="http://soap.sforce.com/2006/04/metadata">
    <customObject>true</customObject>
    <description>Prototype for potential new functionality to capture Account-requested discounts</description>
    <mobileReady>false</mobileReady>
    <motif>Custom41: Stack of Cash</motif>
</CustomTab>
